Embedded/Lab7/la0_waveform.vcd
#0 $dumpon
$date today $end
$timescale 1 ns $end
$scope module top $end
$var wire 4 0 ain $end
$var wire 4 1 bin $end
$var wire 4 2 ain_vio $end
$var wire 4 3 bin_vio $end
$var wire 4 4 result $end
$var wire 1 5 select $end
$var wire 1 6 axi_awvalid $end
$var wire 1 7 axi_awready $end
$var wire 1 8 axi_wready $end
$var wire 1 9 axi_wvalid $end
$upscope $end
$enddefinitions $end
#0
$dumpvars
b0001 0
b0010 1
b0000 2
b0000 3
b0000 4
15
06
07
08
09
$end
#7
16
19
#8
17
18
#9
07
08
#13
17
18
#14
06
07
08
09
#28
16
19
#29
17
18
#30
07
08
#34
17
18
#35
06
07
08
09
#49
16
19
#50
17
18
#51
07
08
#55
17
18
#56
06
07
08
09
#70
16
19
#71
17
18
#72
07
08
#76
17
18
#77
06
07
08
09
#91
16
19
#92
17
18
#93
07
08
#97
17
18
#98
06
07
08
09
#112
16
19
#113
17
18
#114
07
08
#118
17
18
#119
06
07
08
09
#133
16
19
#134
17
18
#135
07
08
#139
17
18
#140
06
07
08
09
#154
16
19
#155
17
18
#156
07
08
#160
17
18
#161
06
07
08
09
#175
16
19
#176
17
18
#177
07
08
#181
17
18
#182
06
07
08
09
#196
16
19
#197
17
18
#198
07
08
#202
17
18
#203
06
07
08
09
#217
16
19
#218
17
18
#219
07
08
#223
17
18
#224
06
07
08
09
#238
16
19
#239
17
18
#240
07
08
#244
17
18
#245
06
07
08
09
#259
16
19
#260
17
18
#261
07
08
#265
17
18
#266
06
07
08
09
#280
16
19
#281
17
18
#282
07
08
#286
17
18
#287
06
07
08
09
#301
16
19
#302
17
18
#303
07
08
#307
17
18
#308
06
07
08
09
#322
16
19
#323
17
18
#324
07
08
#328
17
18
#329
06
07
08
09
#343
16
19
#344
17
18
#345
07
08
#349
17
18
#350
06
07
08
09
#364
16
19
#365
17
18
#366
07
08
#370
17
18
#371
06
07
08
09
#385
16
19
#386
17
18
#387
07
08
#391
17
18
#392
06
07
08
09
#406
16
19
#407
17
18
#408
07
08
#412
17
18
#413
06
07
08
09
#427
16
19
#428
17
18
#429
07
08
#433
17
18
#434
06
07
08
09
#448
16
19
#449
17
18
#450
07
08
#454
17
18
#455
06
07
08
09
#469
16
19
#470
17
18
#471
07
08
#475
17
18
#476
06
07
08
09
#490
16
19
#491
17
18
#492
07
08
#496
17
18
#497
06
07
08
09
#501
05
#502
b0011 4
#511
16
19
#512
17
18
#513
07
08
#517
17
18
#518
06
07
08
09
#532
16
19
#533
17
18
#534
07
08
#538
17
18
#539
06
07
08
09
#553
16
19
#554
17
18
#555
07
08
#559
17
18
#560
06
07
08
09
#574
16
19
#575
17
18
#576
07
08
#580
17
18
#581
06
07
08
09
#595
16
19
#596
17
18
#597
07
08
#601
17
18
#602
06
07
08
09
#616
16
19
#617
17
18
#618
07
08
#622
17
18
#623
06
07
08
09
#637
16
19
#638
17
18
#639
07
08
#643
17
18
#644
06
07
08
09
#658
16
19
#659
17
18
#660
07
08
#664
17
18
#665
06
07
08
09
#679
16
19
#680
17
18
#681
07
08
#685
17
18
#686
06
07
08
09
#700
16
19
#701
17
18
#702
07
08
#706
17
18
#707
06
07
08
09
#721
16
19
#722
17
18
#723
07
08
#727
17
18
#728
06
07
08
09
#742
16
19
#743
17
18
#744
07
08
#748
17
18
#749
06
07
08
09
#763
16
19
#764
17
18
#765
07
08
#769
17
18
#770
06
07
08
09
#784
16
19
#785
17
18
#786
07
08
#790
17
18
#791
06
07
08
09
#805
16
19
#806
17
18
#807
07
08
#811
17
18
#812
06
07
08
09
#826
16
19
#827
17
18
#828
07
08
#832
17
18
#833
06
07
08
09
#847
16
19
#848
17
18
#849
07
08
#853
17
18
#854
06
07
08
09
#868
16
19
#869
17
18
#870
07
08
#874
17
18
#875
06
07
08
09
#889
16
19
#890
17
18
#891
07
08
#895
17
18
#896
06
07
08
09
#910
16
19
#911
17
18
#912
07
08
#916
17
18
#917
06
07
08
09
#931
16
19
#932
17
18
#933
07
08
#937
17
18
#938
06
07
08
09
#952
16
19
#953
17
18
#954
07
08
#958
17
18
#959
06
07
08
09
#973
16
19
#974
17
18
#975
07
08
#979
17
18
#980
06
07
08
09
#994
16
19
#995
17
18
#996
07
08
#1000
17
18
#1001
06
07
08
09
#1015
16
19
#1016
17
18
#1017
07
08
#1021
17
18
#1022
06
07
08
09
#1023
b0001 0
b0010 1
b0000 2
b0000 3
b0011 4
05
06
07
08
09
